{
  "sites": [
    {
      "name": "Accounts and Treasuries",
      "url": "https://dat.py.gov.in",
      "old_urls": []
    },
    {
      "name": "Adi Dravidar Welfare and Scheduled Tribes Welfare",
      "url": "https://adwelfare.py.gov.in",
      "old_urls": []
    },
    {
      "name": "Agriculture and Farmers Welfare",
      "url": "https://agri.py.gov.in",
      "old_urls": []
    },
    {
      "name": "Animal Husbandry and Animal Welfare Department",
      "url": "https://ahd.py.gov.in",
      "old_urls": ["http://ahd.puducherry.gov.in"]
    },
    {
      "name": "Arts and Culture",
      "url": "https://art.py.gov.in",
      "old_urls": []
    },
    {
      "name": "Bharathidasan Government College for Women",
      "url": "https://bgcw.py.gov.in",
      "old_urls": ["http://bgcw.puducherry.gov.in"]
    },
    {
      "name": "Chief Vigilance Office",
      "url": "https://cvo.py.gov.in",
      "old_urls": ["http://cvo.puducherry.gov.in"]
    },
    {
      "name": "Civil Supplies and Consumer Affairs",
      "url": "https://dcsca.py.gov.in",
      "old_urls": []
    },
    {
      "name": "Co-operative",
      "url": "https://cooperative.py.gov.in",
      "old_urls": []
    },
    {
      "name": "Commercial Taxes Department",
      "url": "https://gst.py.gov.in",
      "old_urls": []
    },
    {
      "name": "Department of Personnel and Administrative Reforms",
      "url": "https://dpar.py.gov.in",
      "old_urls": ["http://dpar.puducherry.gov.in"]
    },
    {
      "name": "Drugs Control",
      "url": "https://drugscontrol.py.gov.in",
      "old_urls": []
    },
    {
      "name": "Economics and Statistics",
      "url": "https://statistics.py.gov.in",
      "old_urls": []
    },
    {
      "name": "Elections",
      "url": "https://ceopuducherry.py.gov.in",
      "old_urls": []
    },
    {
      "name": "Electricity",
      "url": "https://electricity.py.gov.in",
      "old_urls": []
    },
    {
      "name": "Finance",
      "url": "https://finance.py.gov.in",
      "old_urls": []
    },
    {
      "name": "Fire Service",
      "url": "https://fire.py.gov.in",
      "old_urls": []
    },
    {
      "name": "Fisheries and Fishermen Welfare",
      "url": "https://fisheries.py.gov.in",
      "old_urls": []
    },
    {
      "name": "Food and Drugs Testing",
      "url": "",
      "old_urls": []
    },
    {
      "name": "Food Safety",
      "url": "",
      "old_urls": []
    },
    {
      "name": "Forest and Wild Life",
      "url": "",
      "old_urls": ["http://forest.puducherry.gov.in"]
    },
    {
      "name": "Health and Family Welfare Services",
      "url": "https://health.py.gov.in",
      "old_urls": []
    },
    {
      "name": "Higher and Technical Education",
      "url": "https://dhte.py.gov.in",
      "old_urls": []
    },
    {
      "name": "Hindu Religious Institutions and Wakf",
      "url": "http://hri.py.gov.in",
      "old_urls": ["https://hriwakf.py.gov.in"]
    },
    {
      "name": "Home",
      "url": "https://home.py.gov.in",
      "old_urls": []
    },
    {
      "name": "Industries and Commerce",
      "url": "https://industry.py.gov.in",
      "old_urls": []
    },
    {
      "name": "Information and Publicity",
      "url": "https://info.py.gov.in",
      "old_urls": ["http://info.puducherry.gov.in"]
    },
    {
      "name": "Information Technology",
      "url": "https://dit.py.gov.in",
      "old_urls": []
    },
    {
      "name": "Labour",
      "url": "https://labour.py.gov.in",
      "old_urls": []
    },
    {
      "name": "Law",
      "url": "https://law.py.gov.in",
      "old_urls": ["http://law.puducherry.gov.in"]
    },
    {
      "name": "Local Administration",
      "url": "https://lad.py.gov.in",
      "old_urls": []
    },
    {
      "name": "Planning and Research",
      "url": "https://pandr.py.gov.in",
      "old_urls": []
    },
    {
      "name": "Police",
      "url": "https://police.py.gov.in",
      "old_urls": ["http://police.puducherry.gov.in"]
    },
    {
      "name": "Port",
      "url": "https://port.py.gov.in",
      "old_urls": []
    },
    {
      "name": "Prisons",
      "url": "",
      "old_urls": ["http://prisons.pondicherry.gov.in"]
    },
    {
      "name": "Public Works Department",
      "url": "https://pwd.py.gov.in",
      "old_urls": ["http://pwd.puducherry.gov.in"]
    },
    {
      "name": "Puducherry UT",
      "url": "https://www.py.gov.in",
      "old_urls": ["http://www.pon.nic.in"]
    },
    {
      "name": "PuduvaiKural",
      "url": "",
      "old_urls": ["http://puduvaikural.puducherry.gov.in"]
    },
    {
      "name": "Revenue and Disaster Management",
      "url": "https://revenue.py.gov.in",
      "old_urls": []
    },
    {
      "name": "Rural Development",
      "url": "https://drda.py.gov.in",
      "old_urls": []
    },
    {
      "name": "Sainik Welfare",
      "url": "https://sainik.py.gov.in",
      "old_urls": []
    },
    {
      "name": "School Education",
      "url": "https://schooledn.py.gov.in",
      "old_urls": ["http://schooledn.puducherry.gov.in"]
    },
    {
      "name": "Science, Technology and Environment",
      "url": "https://dste.py.gov.in",
      "old_urls": []
    },
    {
      "name": "Social Welfare",
      "url": "https://socwelfare.py.gov.in",
      "old_urls": []
    },
    {
      "name": "Stationery and Printing",
      "url": "https://styandptg.py.gov.in",
      "old_urls": []
    },
    {
      "name": "Tourism",
      "url": "https://tourism.py.gov.in",
      "old_urls": ["https://tourism.puducherry.gov.in"]
    },
    {
      "name": "Town and Country Planning",
      "url": "https://tcpd.py.gov.in",
      "old_urls": []
    },
    {
      "name": "Transport",
      "url": "https://transport.py.gov.in",
      "old_urls": []
    },
    {
      "name": "Welfare of Backward classes and Minorities",
      "url": "https://bcmwel.py.gov.in/",
      "old_urls": []
    },
    {
      "name": "Women and Child Development",
      "url": "https://wcd.py.gov.in",
      "old_urls": []
    }
  ]
}
